<svg xmlns="http://www.w3.org/2000/svg" width="32" height="32" viewBox="0 0 32 32">
    <path fill="#3B4E61" fill-rule="evenodd" d="M9.943 22.677c2.708-.891 3.36-1.767 3.396-4.164a4.475 4.475 0 0 1-.723-.718 5.575 5.575 0 0 1-1.025-2.735.515.515 0 0 1-.127.017c-.497 0-.874-1.22-.874-2.078 0-.858.256-1.119.5-1.119.064 0 .128.005.192.014a8.502 8.502 0 0 1-.233-1.852C11.049 6.832 12.27 5 16.09 5c1.82 0 1.942.478 2.292 1.146.195-.155.438-.236.687-.23.972 0 2.063 1.247 2.063 4.126a8.501 8.501 0 0 1-.233 1.852 1.39 1.39 0 0 1 .192-.014c.244 0 .499.26.499 1.119 0 .858-.376 2.078-.873 2.078a.514.514 0 0 1-.128-.017 5.575 5.575 0 0 1-1.025 2.735 4.477 4.477 0 0 1-.722.718c.036 2.397.687 3.273 3.395 4.164 2.534.834 3.73 1.417 3.94 3.562a.693.693 0 0 1-.688.761H6.691a.693.693 0 0 1-.688-.761c.211-2.145 1.406-2.728 3.94-3.562z"/>
</svg>
