<svg xmlns="http://www.w3.org/2000/svg" width="32" height="32" viewBox="0 0 32 32">
    <path fill="#3B4E61" fill-rule="nonzero" d="M16 28C9.373 28 4 22.627 4 16S9.373 4 16 4s12 5.373 12 12a12 12 0 0 1-12 12zm0-22C10.477 6 6 10.477 6 16s4.477 10 10 10 10-4.477 10-10S21.523 6 16 6zm.75 6A1.64 1.64 0 0 1 15 10.5 1.64 1.64 0 0 1 16.75 9a1.64 1.64 0 0 1 1.75 1.5 1.64 1.64 0 0 1-1.75 1.5zm.71 3.382l-1.392 5.254c-.136.51.13 1.042.62 1.238a.5.5 0 0 1 .315.465v.161a.5.5 0 0 1-.5.5H15.01a1.502 1.502 0 0 1-1.46-1.882l1.392-5.254a1.045 1.045 0 0 0-.621-1.238.5.5 0 0 1-.315-.465V14a.5.5 0 0 1 .5-.5H16a1.502 1.502 0 0 1 1.46 1.882z"/>
</svg>
